-------------------------------------------------------------------------------
Test set: com.muzamil.RunnerTest
-------------------------------------------------------------------------------
Tests run: 9, Failures: 2, Errors: 0, Skipped: 0, Time elapsed: 36.803 sec <<< FAILURE!
Then I verify product topic contains text "Nikon D3X"(Scenario: open amazone.com)  Time elapsed: 0.014 sec  <<< FAILURE!
java.lang.AssertionError: Product topic does not contain provide key
	at org.junit.Assert.fail(Assert.java:88)
	at org.junit.Assert.assertTrue(Assert.java:41)
	at com.muzamil.SearchSteps.shouldVerifyTextOfItemTopic(SearchSteps.java:79)
	at ?.Then I verify product topic contains text "Nikon D3X"(searchFeature.feature:11)

Scenario: open amazone.com  Time elapsed: 0.015 sec  <<< FAILURE!
java.lang.AssertionError: Product topic does not contain provide key
	at org.junit.Assert.fail(Assert.java:88)
	at org.junit.Assert.assertTrue(Assert.java:41)
	at com.muzamil.SearchSteps.shouldVerifyTextOfItemTopic(SearchSteps.java:79)
	at ?.Then I verify product topic contains text "Nikon D3X"(searchFeature.feature:11)

